EESchema Schematic File Version 4
EELAYER 30 0
EELAYER END
$Descr A4 11693 8268
encoding utf-8
Sheet 4 7
Title ""
Date ""
Rev ""
Comp ""
Comment1 ""
Comment2 ""
Comment3 ""
Comment4 ""
$EndDescr
Wire Wire Line
	5350 3350 5100 3350
Wire Wire Line
	5350 3150 4900 3150
$Comp
L power:GND #PWR038
U 1 1 61AF48FA
P 4900 3700
F 0 "#PWR038" H 4900 3450 50  0001 C CNN
F 1 "GND" H 4905 3527 50  0000 C CNN
F 2 "" H 4900 3700 50  0001 C CNN
F 3 "" H 4900 3700 50  0001 C CNN
	1    4900 3700
	1    0    0    -1  
$EndComp
Wire Wire Line
	4900 3100 4900 3150
Connection ~ 4900 3150
Wire Wire Line
	4900 3150 4700 3150
Wire Wire Line
	4900 3700 4900 3650
Connection ~ 4900 3650
Wire Wire Line
	4900 3650 4700 3650
$Comp
L power:+3.3V #PWR039
U 1 1 61AF5A4C
P 6550 3100
F 0 "#PWR039" H 6550 2950 50  0001 C CNN
F 1 "+3.3V" H 6565 3273 50  0000 C CNN
F 2 "" H 6550 3100 50  0001 C CNN
F 3 "" H 6550 3100 50  0001 C CNN
	1    6550 3100
	1    0    0    -1  
$EndComp
$Comp
L power:GND #PWR040
U 1 1 61AF5F27
P 6550 3700
F 0 "#PWR040" H 6550 3450 50  0001 C CNN
F 1 "GND" H 6555 3527 50  0000 C CNN
F 2 "" H 6550 3700 50  0001 C CNN
F 3 "" H 6550 3700 50  0001 C CNN
	1    6550 3700
	1    0    0    -1  
$EndComp
Wire Wire Line
	6450 3150 6550 3150
Wire Wire Line
	6550 3150 6550 3100
Wire Wire Line
	6450 3650 6550 3650
Wire Wire Line
	6550 3650 6550 3700
Text HLabel 6550 3450 2    50   Input ~ 0
scl
Text HLabel 6550 3350 2    50   Input ~ 0
sda
Wire Wire Line
	6450 3350 6550 3350
Wire Wire Line
	6450 3450 6550 3450
$Comp
L power:+3.3V #PWR037
U 1 1 61AF4E28
P 4900 3100
F 0 "#PWR037" H 4900 2950 50  0001 C CNN
F 1 "+3.3V" H 4915 3273 50  0000 C CNN
F 2 "" H 4900 3100 50  0001 C CNN
F 3 "" H 4900 3100 50  0001 C CNN
	1    4900 3100
	1    0    0    -1  
$EndComp
$Comp
L Device:C_Small C?
U 1 1 61C01595
P 5100 3500
AR Path="/61A218D6/61C01595" Ref="C?"  Part="1" 
AR Path="/61A2171E/61C01595" Ref="C?"  Part="1" 
AR Path="/61A2183E/61C01595" Ref="C18"  Part="1" 
F 0 "C18" H 5000 3450 50  0000 L TNN
F 1 "0.1uF" H 5100 3550 50  0000 R BNN
F 2 "Capacitor_SMD:C_0805_2012Metric" H 5100 3500 50  0001 C CNN
F 3 "~" H 5100 3500 50  0001 C CNN
	1    5100 3500
	-1   0    0    1   
$EndComp
$Comp
L Device:C_Small C?
U 1 1 61C0171C
P 4700 3500
AR Path="/61A218D6/61C0171C" Ref="C?"  Part="1" 
AR Path="/61A2171E/61C0171C" Ref="C?"  Part="1" 
AR Path="/61A2183E/61C0171C" Ref="C17"  Part="1" 
F 0 "C17" H 4600 3450 50  0000 L TNN
F 1 "0.1uF" H 4700 3550 50  0000 R BNN
F 2 "Capacitor_SMD:C_0805_2012Metric" H 4700 3500 50  0001 C CNN
F 3 "~" H 4700 3500 50  0001 C CNN
	1    4700 3500
	-1   0    0    1   
$EndComp
$Comp
L SparkFun-Sensors:BME280 U4
U 1 1 61AF1DB3
P 5900 3350
F 0 "U4" H 5900 3910 45  0000 C CNN
F 1 "BME280" H 5900 3826 45  0000 C CNN
F 2 "LGA-8-2.5X2.5" H 5900 3800 20  0001 C CNN
F 3 "" H 5900 3350 60  0001 C CNN
F 4 "IC-13090" H 5900 3731 60  0000 C CNN "Field4"
	1    5900 3350
	1    0    0    -1  
$EndComp
Wire Wire Line
	4900 3650 5100 3650
Wire Wire Line
	5100 3600 5100 3650
Connection ~ 5100 3650
Wire Wire Line
	5100 3650 5350 3650
Wire Wire Line
	5100 3400 5100 3350
Wire Wire Line
	4700 3150 4700 3400
Wire Wire Line
	4700 3600 4700 3650
$EndSCHEMATC
