EESchema Schematic File Version 4
EELAYER 30 0
EELAYER END
$Descr A4 11693 8268
encoding utf-8
Sheet 7 7
Title ""
Date ""
Rev ""
Comp ""
Comment1 ""
Comment2 ""
Comment3 ""
Comment4 ""
$EndDescr
$Comp
L SparkFun-Sensors:CCS811PRODUCTION U6
U 1 1 61C252B2
P 5600 4000
F 0 "U6" H 5600 4660 45  0000 C CNN
F 1 "CCS811PRODUCTION" H 5600 4576 45  0000 C CNN
F 2 "LGA10" H 5600 4550 20  0001 C CNN
F 3 "" H 5600 4000 60  0001 C CNN
F 4 "IC-13607" H 5600 4481 60  0000 C CNN "Field4"
	1    5600 4000
	1    0    0    -1  
$EndComp
Wire Wire Line
	5100 4200 5050 4200
Wire Wire Line
	5050 4200 5050 4100
Wire Wire Line
	5050 4100 5100 4100
$Comp
L power:GND #PWR?
U 1 1 61C2692F
P 5050 4450
AR Path="/61A217B5/61C2692F" Ref="#PWR?"  Part="1" 
AR Path="/61C24B06/61C2692F" Ref="#PWR070"  Part="1" 
F 0 "#PWR070" H 5050 4200 50  0001 C CNN
F 1 "GND" H 5055 4277 50  0000 C CNN
F 2 "" H 5050 4450 50  0001 C CNN
F 3 "" H 5050 4450 50  0001 C CNN
	1    5050 4450
	1    0    0    -1  
$EndComp
$Comp
L Device:R_US R?
U 1 1 61C26929
P 6750 4200
AR Path="/61A2171E/61C26929" Ref="R?"  Part="1" 
AR Path="/61A217B5/61C26929" Ref="R?"  Part="1" 
AR Path="/61C24B06/61C26929" Ref="R19"  Part="1" 
F 0 "R19" H 6818 4246 50  0000 L CNN
F 1 "100K" H 6818 4155 50  0000 L CNN
F 2 "Resistor_SMD:R_0805_2012Metric" V 6790 4190 50  0001 C CNN
F 3 "~" H 6750 4200 50  0001 C CNN
	1    6750 4200
	1    0    0    -1  
$EndComp
Wire Wire Line
	5100 3900 5050 3900
Wire Wire Line
	5050 3900 5050 3750
Wire Wire Line
	5100 3700 5050 3700
Connection ~ 5050 3700
Wire Wire Line
	5050 3700 5050 3650
Wire Wire Line
	5100 4400 5050 4400
Wire Wire Line
	5050 4400 5050 4450
Text HLabel 6150 3700 2    50   Input ~ 0
sda
Text HLabel 6150 3800 2    50   Input ~ 0
scl
Wire Wire Line
	6150 3700 6100 3700
Wire Wire Line
	6150 3800 6100 3800
$Comp
L Device:R_US R?
U 1 1 61C28E1E
P 6450 4350
AR Path="/61A2171E/61C28E1E" Ref="R?"  Part="1" 
AR Path="/61A217B5/61C28E1E" Ref="R?"  Part="1" 
AR Path="/61C24B06/61C28E1E" Ref="R18"  Part="1" 
F 0 "R18" H 6518 4396 50  0000 L CNN
F 1 "10K" H 6518 4305 50  0000 L CNN
F 2 "Resistor_SMD:R_0805_2012Metric" V 6490 4340 50  0001 C CNN
F 3 "~" H 6450 4350 50  0001 C CNN
	1    6450 4350
	1    0    0    -1  
$EndComp
$Comp
L power:GND #PWR?
U 1 1 61C2920F
P 6750 4400
AR Path="/61A217B5/61C2920F" Ref="#PWR?"  Part="1" 
AR Path="/61C24B06/61C2920F" Ref="#PWR072"  Part="1" 
F 0 "#PWR072" H 6750 4150 50  0001 C CNN
F 1 "GND" H 6755 4227 50  0000 C CNN
F 2 "" H 6750 4400 50  0001 C CNN
F 3 "" H 6750 4400 50  0001 C CNN
	1    6750 4400
	1    0    0    -1  
$EndComp
Wire Wire Line
	6750 4400 6750 4350
Wire Wire Line
	6100 3900 6750 3900
Wire Wire Line
	6750 3900 6750 4050
Wire Wire Line
	6450 4500 6450 4550
Wire Wire Line
	6450 4550 6250 4550
Wire Wire Line
	6100 4550 6100 4400
Wire Wire Line
	6250 4500 6250 4550
Connection ~ 6250 4550
Wire Wire Line
	6250 4550 6100 4550
Wire Wire Line
	6100 4200 6450 4200
Wire Wire Line
	4850 3800 4850 3750
Wire Wire Line
	4850 3750 5050 3750
Connection ~ 5050 3750
Wire Wire Line
	5050 3750 5050 3700
$Comp
L power:GND #PWR?
U 1 1 61C2D801
P 4850 4050
AR Path="/61A217B5/61C2D801" Ref="#PWR?"  Part="1" 
AR Path="/61C24B06/61C2D801" Ref="#PWR068"  Part="1" 
F 0 "#PWR068" H 4850 3800 50  0001 C CNN
F 1 "GND" H 4855 3877 50  0000 C CNN
F 2 "" H 4850 4050 50  0001 C CNN
F 3 "" H 4850 4050 50  0001 C CNN
	1    4850 4050
	1    0    0    -1  
$EndComp
Wire Wire Line
	4850 4050 4850 4000
$Comp
L Device:C_Small C?
U 1 1 61C02B76
P 4850 3900
AR Path="/61A218D6/61C02B76" Ref="C?"  Part="1" 
AR Path="/61A2171E/61C02B76" Ref="C?"  Part="1" 
AR Path="/61C24B06/61C02B76" Ref="C38"  Part="1" 
F 0 "C38" H 4750 3850 50  0000 L TNN
F 1 "1uF" H 4850 3950 50  0000 R BNN
F 2 "Capacitor_SMD:C_0805_2012Metric" H 4850 3900 50  0001 C CNN
F 3 "~" H 4850 3900 50  0001 C CNN
	1    4850 3900
	-1   0    0    1   
$EndComp
Connection ~ 4000 4000
Wire Wire Line
	4000 4000 4000 3850
Wire Wire Line
	4000 4500 4000 4650
$Comp
L power:+3.3V #PWR?
U 1 1 61C8FF6B
P 4000 3850
AR Path="/61A2183E/61C8FF6B" Ref="#PWR?"  Part="1" 
AR Path="/61A218D6/61C8FF6B" Ref="#PWR?"  Part="1" 
AR Path="/61A217B5/61C8FF6B" Ref="#PWR?"  Part="1" 
AR Path="/61C24B06/61C8FF6B" Ref="#PWR066"  Part="1" 
F 0 "#PWR066" H 4000 3700 50  0001 C CNN
F 1 "+3.3V" H 4015 4023 50  0000 C CNN
F 2 "" H 4000 3850 50  0001 C CNN
F 3 "" H 4000 3850 50  0001 C CNN
	1    4000 3850
	1    0    0    -1  
$EndComp
Wire Wire Line
	4000 4000 4000 4100
Wire Wire Line
	3950 4000 4000 4000
Connection ~ 3600 4400
Wire Wire Line
	3600 4400 3550 4400
Wire Wire Line
	3600 4400 3700 4400
Wire Wire Line
	3600 4000 3600 4400
Wire Wire Line
	3650 4000 3600 4000
$Comp
L Device:R_US R?
U 1 1 61C8FF78
P 3800 4000
AR Path="/609302C0/61C8FF78" Ref="R?"  Part="1" 
AR Path="/6093043F/61C8FF78" Ref="R?"  Part="1" 
AR Path="/6092FBF4/61C8FF78" Ref="R?"  Part="1" 
AR Path="/6115C67C/61C8FF78" Ref="R?"  Part="1" 
AR Path="/61A2186F/61C8FF78" Ref="R?"  Part="1" 
AR Path="/61A218D6/61C8FF78" Ref="R?"  Part="1" 
AR Path="/61A217B5/61C8FF78" Ref="R?"  Part="1" 
AR Path="/61C24B06/61C8FF78" Ref="R17"  Part="1" 
F 0 "R17" V 3900 3950 50  0000 L CNN
F 1 "100K" V 3700 3900 50  0000 L CNN
F 2 "Resistor_SMD:R_0805_2012Metric" V 3840 3990 50  0001 C CNN
F 3 "~" H 3800 4000 50  0001 C CNN
	1    3800 4000
	0    -1   -1   0   
$EndComp
$Comp
L dk_Transistors-FETs-MOSFETs-Single:AO3401A Q?
U 1 1 61C8FF87
P 4000 4300
AR Path="/61A218D6/61C8FF87" Ref="Q?"  Part="1" 
AR Path="/61A217B5/61C8FF87" Ref="Q?"  Part="1" 
AR Path="/61C24B06/61C8FF87" Ref="Q5"  Part="1" 
F 0 "Q5" H 4100 4400 60  0000 L CNN
F 1 "AO3401A" H 4100 4300 60  0000 L CNN
F 2 "digikey-footprints:SOT-23-3" H 4200 4500 60  0001 L CNN
F 3 "http://aosmd.com/res/data_sheets/AO3401A.pdf" H 4200 4600 60  0001 L CNN
F 4 "785-1001-1-ND" H 4200 4700 60  0001 L CNN "Digi-Key_PN"
F 5 "AO3401A" H 4200 4800 60  0001 L CNN "MPN"
F 6 "Discrete Semiconductor Products" H 4200 4900 60  0001 L CNN "Category"
F 7 "Transistors - FETs, MOSFETs - Single" H 4200 5000 60  0001 L CNN "Family"
F 8 "http://aosmd.com/res/data_sheets/AO3401A.pdf" H 4200 5100 60  0001 L CNN "DK_Datasheet_Link"
F 9 "/product-detail/en/alpha-omega-semiconductor-inc/AO3401A/785-1001-1-ND/1855943" H 4200 5200 60  0001 L CNN "DK_Detail_Page"
F 10 "MOSFET P-CH 30V 4A SOT23" H 4200 5300 60  0001 L CNN "Description"
F 11 "Alpha & Omega Semiconductor Inc." H 4200 5400 60  0001 L CNN "Manufacturer"
F 12 "Active" H 4200 5500 60  0001 L CNN "Status"
	1    4000 4300
	1    0    0    -1  
$EndComp
Wire Wire Line
	4000 4650 4200 4650
Text HLabel 3550 4400 0    50   Input ~ 0
pwr
$Comp
L power:+3.3VP #PWR067
U 1 1 61C939F2
P 4200 4650
F 0 "#PWR067" H 4350 4600 50  0001 C CNN
F 1 "+3.3VP" H 4215 4823 50  0000 C CNN
F 2 "" H 4200 4650 50  0001 C CNN
F 3 "" H 4200 4650 50  0001 C CNN
	1    4200 4650
	1    0    0    -1  
$EndComp
$Comp
L power:+3.3VP #PWR069
U 1 1 61C94966
P 5050 3650
F 0 "#PWR069" H 5200 3600 50  0001 C CNN
F 1 "+3.3VP" H 5065 3823 50  0000 C CNN
F 2 "" H 5050 3650 50  0001 C CNN
F 3 "" H 5050 3650 50  0001 C CNN
	1    5050 3650
	1    0    0    -1  
$EndComp
$Comp
L power:+3.3VP #PWR071
U 1 1 61C96328
P 6250 4500
F 0 "#PWR071" H 6400 4450 50  0001 C CNN
F 1 "+3.3VP" H 6265 4673 50  0000 C CNN
F 2 "" H 6250 4500 50  0001 C CNN
F 3 "" H 6250 4500 50  0001 C CNN
	1    6250 4500
	1    0    0    -1  
$EndComp
$EndSCHEMATC
