EESchema Schematic File Version 4
EELAYER 30 0
EELAYER END
$Descr A4 11693 8268
encoding utf-8
Sheet 1 7
Title ""
Date ""
Rev ""
Comp ""
Comment1 ""
Comment2 ""
Comment3 ""
Comment4 ""
$EndDescr
$Sheet
S 5100 2250 800  1700
U 61A2171E
F0 "samd21" 50
F1 "samd21.sch" 50
F2 "spiSck" I L 5100 3650 50 
F3 "spiMosi" I L 5100 3750 50 
F4 "scl" I R 5900 3100 50 
F5 "sda" I R 5900 3200 50 
F6 "spiMiso" I L 5100 3850 50 
F7 "tx" I L 5100 2650 50 
F8 "rx" I L 5100 2750 50 
F9 "A1" I R 5900 2450 50 
F10 "A2" I R 5900 2550 50 
F11 "A0" I R 5900 2350 50 
F12 "A3" I R 5900 2650 50 
F13 "A4" I R 5900 2750 50 
F14 "A5" I R 5900 2850 50 
F15 "Aref" I R 5900 2950 50 
F16 "D13" I R 5900 3450 50 
F17 "D12" I R 5900 3550 50 
F18 "D11" I R 5900 3650 50 
F19 "D10" I L 5100 3550 50 
F20 "D9" I L 5100 3450 50 
F21 "D8" I L 5100 3350 50 
F22 "D7" I L 5100 3250 50 
F23 "D6" I R 5900 3750 50 
F24 "D5" I R 5900 3850 50 
F25 "D4" I L 5100 2350 50 
F26 "D3" I L 5100 2450 50 
F27 "D2" I L 5100 2550 50 
$EndSheet
$Sheet
S 4350 2250 550  600 
U 61A217B5
F0 "esp8266" 50
F1 "esp8266.sch" 50
F2 "tx" I R 4900 2750 50 
F3 "rst" I R 4900 2450 50 
F4 "rx" I R 4900 2650 50 
F5 "io0" I R 4900 2550 50 
F6 "pwr" I R 4900 2350 50 
$EndSheet
$Sheet
S 7450 3150 550  300 
U 61A2183E
F0 "bme280" 50
F1 "bme280.sch" 50
F2 "scl" I L 7450 3250 50 
F3 "sda" I L 7450 3350 50 
$EndSheet
$Sheet
S 6100 2350 550  200 
U 61A2186F
F0 "power" 50
F1 "power.sch" 50
F2 "batD" I L 6100 2450 50 
$EndSheet
$Sheet
S 4350 3150 550  700 
U 61A218D6
F0 "ePaper" 50
F1 "ePaper.sch" 50
F2 "dc" I R 4900 3450 50 
F3 "busy" I R 4900 3250 50 
F4 "cs" I R 4900 3550 50 
F5 "clk" I R 4900 3650 50 
F6 "din" I R 4900 3750 50 
F7 "rst" I R 4900 3350 50 
$EndSheet
$Sheet
S 7450 2550 550  400 
U 61C24B06
F0 "CCS811" 50
F1 "CCS811.sch" 50
F2 "sda" I L 7450 2750 50 
F3 "scl" I L 7450 2650 50 
F4 "pwr" I L 7450 2850 50 
$EndSheet
Text Label 6050 3100 0    50   ~ 0
scl
Text Label 6050 3200 0    50   ~ 0
sda
Wire Wire Line
	5900 3100 6050 3100
Wire Wire Line
	5900 3200 6050 3200
Text Label 7300 3250 2    50   ~ 0
scl
Text Label 7300 3350 2    50   ~ 0
sda
Wire Wire Line
	7450 3250 7300 3250
Wire Wire Line
	7450 3350 7300 3350
Text Label 7300 2650 2    50   ~ 0
scl
Text Label 7300 2750 2    50   ~ 0
sda
Wire Wire Line
	7450 2650 7300 2650
Wire Wire Line
	7450 2750 7300 2750
Text Label 7300 2850 2    50   ~ 0
ccs811Pwr
Wire Wire Line
	7300 2850 7450 2850
Wire Wire Line
	4900 3250 5100 3250
Wire Wire Line
	4900 3350 5100 3350
Wire Wire Line
	4900 3450 5100 3450
Wire Wire Line
	4900 3550 5100 3550
Wire Wire Line
	4900 3650 5100 3650
Wire Wire Line
	4900 3750 5100 3750
Wire Wire Line
	5100 3850 5050 3850
NoConn ~ 5050 3850
Wire Wire Line
	5100 2750 4900 2750
Wire Wire Line
	5100 2650 4900 2650
NoConn ~ 6000 2350
NoConn ~ 6000 2550
NoConn ~ 6000 2650
NoConn ~ 6000 2750
NoConn ~ 6000 2850
NoConn ~ 6000 2950
Wire Wire Line
	5900 2450 6100 2450
Wire Wire Line
	6000 2350 5900 2350
Wire Wire Line
	6000 2550 5900 2550
Wire Wire Line
	6000 2650 5900 2650
Wire Wire Line
	6000 2750 5900 2750
Wire Wire Line
	6000 2850 5900 2850
Wire Wire Line
	6000 2950 5900 2950
Wire Wire Line
	4900 2550 5100 2550
Wire Wire Line
	4900 2450 5100 2450
Wire Wire Line
	4900 2350 5100 2350
Text Label 6050 3450 0    50   ~ 0
ccs811Pwr
Wire Wire Line
	6050 3450 5900 3450
$EndSCHEMATC
