EESchema Schematic File Version 4
EELAYER 30 0
EELAYER END
$Descr A4 11693 8268
encoding utf-8
Sheet 6 7
Title ""
Date ""
Rev ""
Comp ""
Comment1 ""
Comment2 ""
Comment3 ""
Comment4 ""
$EndDescr
$Comp
L Diode:MBR0530 D2
U 1 1 61B0F8E2
P 4650 4100
F 0 "D2" V 4696 4020 50  0000 R CNN
F 1 "MBR0530" V 4605 4020 50  0000 R CNN
F 2 "Diode_SMD:D_SOD-123" H 4650 3925 50  0001 C CNN
F 3 "http://www.mccsemi.com/up_pdf/MBR0520~MBR0580(SOD123).pdf" H 4650 4100 50  0001 C CNN
	1    4650 4100
	0    -1   -1   0   
$EndComp
$Comp
L Diode:MBR0530 D3
U 1 1 61B121B0
P 5150 4100
F 0 "D3" V 5100 4250 50  0000 R CNN
F 1 "MBR0530" V 5200 4500 50  0000 R CNN
F 2 "Diode_SMD:D_SOD-123" H 5150 3925 50  0001 C CNN
F 3 "http://www.mccsemi.com/up_pdf/MBR0520~MBR0580(SOD123).pdf" H 5150 4100 50  0001 C CNN
	1    5150 4100
	0    1    1    0   
$EndComp
$Comp
L Diode:MBR0530 D4
U 1 1 61B12A2B
P 5600 4100
F 0 "D4" V 5646 4020 50  0000 R CNN
F 1 "MBR0530" V 5555 4020 50  0000 R CNN
F 2 "Diode_SMD:D_SOD-123" H 5600 3925 50  0001 C CNN
F 3 "http://www.mccsemi.com/up_pdf/MBR0520~MBR0580(SOD123).pdf" H 5600 4100 50  0001 C CNN
	1    5600 4100
	0    -1   -1   0   
$EndComp
$Comp
L Device:R_US R?
U 1 1 61B146E7
P 4850 3250
AR Path="/609302C0/61B146E7" Ref="R?"  Part="1" 
AR Path="/6093043F/61B146E7" Ref="R?"  Part="1" 
AR Path="/6092FBF4/61B146E7" Ref="R?"  Part="1" 
AR Path="/6115C67C/61B146E7" Ref="R?"  Part="1" 
AR Path="/61A2186F/61B146E7" Ref="R?"  Part="1" 
AR Path="/61A218D6/61B146E7" Ref="R15"  Part="1" 
F 0 "R15" V 4900 3350 50  0000 L CNN
F 1 "10K" V 4900 3050 50  0000 L CNN
F 2 "Resistor_SMD:R_0805_2012Metric" V 4890 3240 50  0001 C CNN
F 3 "~" H 4850 3250 50  0001 C CNN
	1    4850 3250
	0    -1   -1   0   
$EndComp
$Comp
L power:GND #PWR?
U 1 1 61B146ED
P 4650 4300
AR Path="/61A2186F/61B146ED" Ref="#PWR?"  Part="1" 
AR Path="/61A218D6/61B146ED" Ref="#PWR059"  Part="1" 
F 0 "#PWR059" H 4650 4050 50  0001 C CNN
F 1 "GND" H 4655 4127 50  0000 C CNN
F 2 "" H 4650 4300 50  0001 C CNN
F 3 "" H 4650 4300 50  0001 C CNN
	1    4650 4300
	1    0    0    -1  
$EndComp
Wire Wire Line
	4650 4300 4650 4250
$Comp
L power:GND #PWR?
U 1 1 61B16EB6
P 4650 3650
AR Path="/61A2186F/61B16EB6" Ref="#PWR?"  Part="1" 
AR Path="/61A218D6/61B16EB6" Ref="#PWR058"  Part="1" 
F 0 "#PWR058" H 4650 3400 50  0001 C CNN
F 1 "GND" H 4655 3477 50  0000 C CNN
F 2 "" H 4650 3650 50  0001 C CNN
F 3 "" H 4650 3650 50  0001 C CNN
	1    4650 3650
	1    0    0    -1  
$EndComp
Wire Wire Line
	4650 3650 4650 3600
Wire Wire Line
	4650 3600 4700 3600
Wire Wire Line
	4650 3950 4650 3850
Wire Wire Line
	4650 3850 5150 3850
Wire Wire Line
	5150 3950 5150 3850
Connection ~ 5150 3850
Wire Wire Line
	5150 3850 5250 3850
Wire Wire Line
	5600 3850 5600 3950
Wire Wire Line
	5100 3550 5100 3600
Wire Wire Line
	5100 3600 5150 3600
Connection ~ 5100 3600
Wire Wire Line
	5550 3600 5600 3600
Wire Wire Line
	5600 3600 5600 3850
Connection ~ 5600 3850
Wire Wire Line
	4650 3250 4700 3250
$Comp
L Device:Q_NMOS_GSD Q4
U 1 1 61B1DFFD
P 5500 3250
F 0 "Q4" H 5704 3296 50  0000 L CNN
F 1 "SI1308EDL" H 5704 3205 50  0000 L CNN
F 2 "digikey-footprints:SOT-23-3" H 5700 3350 50  0001 C CNN
F 3 "~" H 5500 3250 50  0001 C CNN
	1    5500 3250
	1    0    0    -1  
$EndComp
Wire Wire Line
	5600 3450 5600 3600
Connection ~ 5600 3600
$Comp
L Device:R_US R?
U 1 1 61B205D3
P 5600 2850
AR Path="/609302C0/61B205D3" Ref="R?"  Part="1" 
AR Path="/6093043F/61B205D3" Ref="R?"  Part="1" 
AR Path="/6092FBF4/61B205D3" Ref="R?"  Part="1" 
AR Path="/6115C67C/61B205D3" Ref="R?"  Part="1" 
AR Path="/61A2186F/61B205D3" Ref="R?"  Part="1" 
AR Path="/61A218D6/61B205D3" Ref="R16"  Part="1" 
F 0 "R16" H 5450 2800 50  0000 L CNN
F 1 "3" H 5500 2900 50  0000 L CNN
F 2 "Resistor_SMD:R_0805_2012Metric" V 5640 2840 50  0001 C CNN
F 3 "~" H 5600 2850 50  0001 C CNN
	1    5600 2850
	-1   0    0    1   
$EndComp
Wire Wire Line
	4650 3300 4650 3250
$Comp
L power:GND #PWR?
U 1 1 61B1D449
P 4650 3300
AR Path="/61A2186F/61B1D449" Ref="#PWR?"  Part="1" 
AR Path="/61A218D6/61B1D449" Ref="#PWR057"  Part="1" 
F 0 "#PWR057" H 4650 3050 50  0001 C CNN
F 1 "GND" H 4655 3127 50  0000 C CNN
F 2 "" H 4650 3300 50  0001 C CNN
F 3 "" H 4650 3300 50  0001 C CNN
	1    4650 3300
	1    0    0    -1  
$EndComp
$Comp
L power:GND #PWR?
U 1 1 61B37B0C
P 5450 2700
AR Path="/61A2186F/61B37B0C" Ref="#PWR?"  Part="1" 
AR Path="/61A218D6/61B37B0C" Ref="#PWR061"  Part="1" 
F 0 "#PWR061" H 5450 2450 50  0001 C CNN
F 1 "GND" H 5455 2527 50  0000 C CNN
F 2 "" H 5450 2700 50  0001 C CNN
F 3 "" H 5450 2700 50  0001 C CNN
	1    5450 2700
	1    0    0    -1  
$EndComp
Wire Wire Line
	5600 2700 5450 2700
Wire Wire Line
	5600 3000 5600 3050
Text Label 5650 3050 0    50   ~ 0
rese
Text Label 5600 4350 0    50   ~ 0
PrevGh
Text Label 5150 4350 0    50   ~ 0
PrevGl
Wire Wire Line
	5600 3050 5650 3050
Connection ~ 5600 3050
Wire Wire Line
	5600 4250 5600 4350
Wire Wire Line
	5150 4250 5150 4350
Text Label 5100 3250 0    50   ~ 0
Gdr
$Comp
L FFC2B28-24-G:FFC2B28-24-G J2
U 1 1 61B3B0E5
P 8200 3450
F 0 "J2" H 8430 3446 50  0000 L CNN
F 1 "FFC2B28-24-G" H 8430 3355 50  0000 L CNN
F 2 "others:FFC2B28-24-G" H 8200 3450 50  0001 L BNN
F 3 "" H 8200 3450 50  0001 L BNN
F 4 "Manufacturer Recommendations" H 8200 3450 50  0001 L BNN "STANDARD"
F 5 "1.75mm" H 8200 3450 50  0001 L BNN "MAXIMUM_PACKAGE_HEIGHT"
F 6 "A" H 8200 3450 50  0001 L BNN "PARTREV"
F 7 "GCT" H 8200 3450 50  0001 L BNN "MANUFACTURER"
	1    8200 3450
	1    0    0    -1  
$EndComp
Text Label 7700 2350 2    50   ~ 0
Gdr
$Comp
L Device:C_Small C28
U 1 1 61B40C03
P 7350 2550
F 0 "C28" V 7400 2650 50  0000 C CNN
F 1 "1uF" V 7400 2450 50  0000 C CNN
F 2 "Capacitor_SMD:C_0805_2012Metric" H 7350 2550 50  0001 C CNN
F 3 "~" H 7350 2550 50  0001 C CNN
	1    7350 2550
	0    -1   -1   0   
$EndComp
$Comp
L Device:C_Small C29
U 1 1 61B45465
P 7350 2650
F 0 "C29" V 7400 2750 50  0000 C CNN
F 1 "1uF" V 7400 2550 50  0000 C CNN
F 2 "Capacitor_SMD:C_0805_2012Metric" H 7350 2650 50  0001 C CNN
F 3 "~" H 7350 2650 50  0001 C CNN
	1    7350 2650
	0    -1   -1   0   
$EndComp
Wire Wire Line
	7200 2650 7250 2650
$Comp
L power:GND #PWR?
U 1 1 61B472B4
P 7200 3000
AR Path="/61A2186F/61B472B4" Ref="#PWR?"  Part="1" 
AR Path="/61A218D6/61B472B4" Ref="#PWR063"  Part="1" 
F 0 "#PWR063" H 7200 2750 50  0001 C CNN
F 1 "GND" H 7205 2827 50  0000 C CNN
F 2 "" H 7200 3000 50  0001 C CNN
F 3 "" H 7200 3000 50  0001 C CNN
	1    7200 3000
	1    0    0    -1  
$EndComp
Wire Wire Line
	7200 2650 7200 2550
Wire Wire Line
	7200 2550 7250 2550
Connection ~ 7200 2650
Wire Wire Line
	5000 3250 5300 3250
Text Label 7700 2450 2    50   ~ 0
rese
Wire Wire Line
	7800 3150 7600 3150
Text Label 7750 3150 2    50   ~ 0
rst
Text Label 7550 4450 0    50   ~ 0
PrevGl
Text Label 7550 4250 0    50   ~ 0
PrevGh
$Comp
L Device:C_Small C30
U 1 1 61B4F31B
P 7350 3650
F 0 "C30" V 7400 3750 50  0000 C CNN
F 1 "0.1uF" V 7300 3500 50  0000 C CNN
F 2 "Capacitor_SMD:C_0805_2012Metric" H 7350 3650 50  0001 C CNN
F 3 "~" H 7350 3650 50  0001 C CNN
	1    7350 3650
	0    -1   -1   0   
$EndComp
$Comp
L Device:C_Small C31
U 1 1 61B4FAD1
P 7350 3950
F 0 "C31" V 7400 4050 50  0000 C CNN
F 1 "1uF" V 7400 3850 50  0000 C CNN
F 2 "Capacitor_SMD:C_0805_2012Metric" H 7350 3950 50  0001 C CNN
F 3 "~" H 7350 3950 50  0001 C CNN
	1    7350 3950
	0    -1   -1   0   
$EndComp
$Comp
L Device:C_Small C32
U 1 1 61B50090
P 7350 4050
F 0 "C32" V 7400 4150 50  0000 C CNN
F 1 "1uF" V 7400 3950 50  0000 C CNN
F 2 "Capacitor_SMD:C_0805_2012Metric" H 7350 4050 50  0001 C CNN
F 3 "~" H 7350 4050 50  0001 C CNN
	1    7350 4050
	0    -1   -1   0   
$EndComp
$Comp
L Device:C_Small C33
U 1 1 61B50510
P 7350 4150
F 0 "C33" V 7400 4250 50  0000 C CNN
F 1 "1uF" V 7400 4050 50  0000 C CNN
F 2 "Capacitor_SMD:C_0805_2012Metric" H 7350 4150 50  0001 C CNN
F 3 "~" H 7350 4150 50  0001 C CNN
	1    7350 4150
	0    -1   -1   0   
$EndComp
$Comp
L Device:C_Small C34
U 1 1 61B50A9E
P 7350 4250
F 0 "C34" V 7400 4350 50  0000 C CNN
F 1 "1uF" V 7400 4150 50  0000 C CNN
F 2 "Capacitor_SMD:C_0805_2012Metric" H 7350 4250 50  0001 C CNN
F 3 "~" H 7350 4250 50  0001 C CNN
	1    7350 4250
	0    -1   -1   0   
$EndComp
$Comp
L Device:C_Small C35
U 1 1 61B50F1E
P 7350 4350
F 0 "C35" V 7400 4450 50  0000 C CNN
F 1 "1uF" V 7400 4250 50  0000 C CNN
F 2 "Capacitor_SMD:C_0805_2012Metric" H 7350 4350 50  0001 C CNN
F 3 "~" H 7350 4350 50  0001 C CNN
	1    7350 4350
	0    -1   -1   0   
$EndComp
$Comp
L Device:C_Small C36
U 1 1 61B513A3
P 7350 4450
F 0 "C36" V 7400 4550 50  0000 C CNN
F 1 "1uF" V 7400 4350 50  0000 C CNN
F 2 "Capacitor_SMD:C_0805_2012Metric" H 7350 4450 50  0001 C CNN
F 3 "~" H 7350 4450 50  0001 C CNN
	1    7350 4450
	0    -1   -1   0   
$EndComp
$Comp
L Device:C_Small C37
U 1 1 61B51823
P 7350 4550
F 0 "C37" V 7400 4650 50  0000 C CNN
F 1 "1uF" V 7400 4450 50  0000 C CNN
F 2 "Capacitor_SMD:C_0805_2012Metric" H 7350 4550 50  0001 C CNN
F 3 "~" H 7350 4550 50  0001 C CNN
	1    7350 4550
	0    -1   -1   0   
$EndComp
Wire Wire Line
	7450 3950 7800 3950
Wire Wire Line
	7450 4050 7800 4050
Wire Wire Line
	7450 4150 7800 4150
Wire Wire Line
	7450 4250 7800 4250
Wire Wire Line
	7450 4350 7800 4350
Wire Wire Line
	7450 4450 7800 4450
Wire Wire Line
	7800 4550 7450 4550
$Comp
L power:GND #PWR?
U 1 1 61B5B844
P 7750 4800
AR Path="/61A2186F/61B5B844" Ref="#PWR?"  Part="1" 
AR Path="/61A218D6/61B5B844" Ref="#PWR065"  Part="1" 
F 0 "#PWR065" H 7750 4550 50  0001 C CNN
F 1 "GND" H 7755 4627 50  0000 C CNN
F 2 "" H 7750 4800 50  0001 C CNN
F 3 "" H 7750 4800 50  0001 C CNN
	1    7750 4800
	1    0    0    -1  
$EndComp
$Comp
L power:GND #PWR?
U 1 1 61B5D484
P 7150 4600
AR Path="/61A2186F/61B5D484" Ref="#PWR?"  Part="1" 
AR Path="/61A218D6/61B5D484" Ref="#PWR062"  Part="1" 
F 0 "#PWR062" H 7150 4350 50  0001 C CNN
F 1 "GND" H 7155 4427 50  0000 C CNN
F 2 "" H 7150 4600 50  0001 C CNN
F 3 "" H 7150 4600 50  0001 C CNN
	1    7150 4600
	1    0    0    -1  
$EndComp
Wire Wire Line
	7150 4600 7150 4550
Connection ~ 7150 4050
Wire Wire Line
	7150 4050 7150 3950
Connection ~ 7150 4150
Wire Wire Line
	7150 4150 7150 4050
Connection ~ 7150 4250
Wire Wire Line
	7150 4250 7150 4150
Connection ~ 7150 4350
Wire Wire Line
	7150 4350 7150 4250
Connection ~ 7150 4450
Wire Wire Line
	7150 4450 7150 4350
Connection ~ 7150 4550
Wire Wire Line
	7150 4550 7150 4450
Wire Wire Line
	7150 3650 7150 3850
Connection ~ 7150 3950
Connection ~ 7150 3850
Wire Wire Line
	7150 3850 7150 3950
Wire Wire Line
	7800 3750 7750 3750
Wire Wire Line
	7750 3750 7750 3650
Wire Wire Line
	7750 3650 7800 3650
Wire Wire Line
	7450 2550 7800 2550
Wire Wire Line
	7450 2650 7800 2650
Wire Wire Line
	7500 3550 7500 3650
Wire Wire Line
	7800 2950 7200 2950
Wire Wire Line
	7200 2650 7200 2950
Wire Wire Line
	7200 3000 7200 2950
Connection ~ 7200 2950
Wire Wire Line
	7150 3850 7800 3850
Wire Wire Line
	7150 3950 7250 3950
Wire Wire Line
	7150 4050 7250 4050
Wire Wire Line
	7150 4150 7250 4150
Wire Wire Line
	7150 4250 7250 4250
Wire Wire Line
	7150 4350 7250 4350
Wire Wire Line
	7150 4450 7250 4450
Wire Wire Line
	7150 4550 7250 4550
$Comp
L dk_Transistors-FETs-MOSFETs-Single:AO3401A Q2
U 1 1 61B978AA
P 3500 3400
F 0 "Q2" V 3608 3453 60  0000 L CNN
F 1 "AO3401A" V 3400 2850 60  0000 L CNN
F 2 "digikey-footprints:SOT-23-3" H 3700 3600 60  0001 L CNN
F 3 "http://aosmd.com/res/data_sheets/AO3401A.pdf" H 3700 3700 60  0001 L CNN
F 4 "785-1001-1-ND" H 3700 3800 60  0001 L CNN "Digi-Key_PN"
F 5 "AO3401A" H 3700 3900 60  0001 L CNN "MPN"
F 6 "Discrete Semiconductor Products" H 3700 4000 60  0001 L CNN "Category"
F 7 "Transistors - FETs, MOSFETs - Single" H 3700 4100 60  0001 L CNN "Family"
F 8 "http://aosmd.com/res/data_sheets/AO3401A.pdf" H 3700 4200 60  0001 L CNN "DK_Datasheet_Link"
F 9 "/product-detail/en/alpha-omega-semiconductor-inc/AO3401A/785-1001-1-ND/1855943" H 3700 4300 60  0001 L CNN "DK_Detail_Page"
F 10 "MOSFET P-CH 30V 4A SOT23" H 3700 4400 60  0001 L CNN "Description"
F 11 "Alpha & Omega Semiconductor Inc." H 3700 4500 60  0001 L CNN "Manufacturer"
F 12 "Active" H 3700 4600 60  0001 L CNN "Status"
	1    3500 3400
	0    -1   -1   0   
$EndComp
$Comp
L SS8050-G:SS8050-G Q3
U 1 1 61B9BB35
P 3500 4050
F 0 "Q3" H 3644 4096 50  0000 L CNN
F 1 "SS8050-G" H 3644 4005 50  0000 L CNN
F 2 "digikey-footprints:SOT-23-3" H 3500 4050 50  0001 L BNN
F 3 "" H 3500 4050 50  0001 L BNN
F 4 "IPC 7351B" H 3500 4050 50  0001 L BNN "STANDARD"
F 5 "7" H 3500 4050 50  0001 L BNN "PARTREV"
F 6 "1.1 mm" H 3500 4050 50  0001 L BNN "MAXIMUM_PACKAGE_HEIGHT"
F 7 "Nexperia" H 3500 4050 50  0001 L BNN "MANUFACTURER"
	1    3500 4050
	1    0    0    -1  
$EndComp
$Comp
L Device:R_US R?
U 1 1 61B9D2CF
P 3100 4050
AR Path="/609302C0/61B9D2CF" Ref="R?"  Part="1" 
AR Path="/6093043F/61B9D2CF" Ref="R?"  Part="1" 
AR Path="/6092FBF4/61B9D2CF" Ref="R?"  Part="1" 
AR Path="/6115C67C/61B9D2CF" Ref="R?"  Part="1" 
AR Path="/61A2186F/61B9D2CF" Ref="R?"  Part="1" 
AR Path="/61A218D6/61B9D2CF" Ref="R12"  Part="1" 
F 0 "R12" V 3150 4100 50  0000 L CNN
F 1 "1K" V 3150 3900 50  0000 L CNN
F 2 "Resistor_SMD:R_0805_2012Metric" V 3140 4040 50  0001 C CNN
F 3 "~" H 3100 4050 50  0001 C CNN
	1    3100 4050
	0    -1   -1   0   
$EndComp
$Comp
L Device:R_US R?
U 1 1 61B9F0D7
P 3300 4250
AR Path="/609302C0/61B9F0D7" Ref="R?"  Part="1" 
AR Path="/6093043F/61B9F0D7" Ref="R?"  Part="1" 
AR Path="/6092FBF4/61B9F0D7" Ref="R?"  Part="1" 
AR Path="/6115C67C/61B9F0D7" Ref="R?"  Part="1" 
AR Path="/61A2186F/61B9F0D7" Ref="R?"  Part="1" 
AR Path="/61A218D6/61B9F0D7" Ref="R14"  Part="1" 
F 0 "R14" H 3150 4150 50  0000 L CNN
F 1 "47K" H 3150 4350 50  0000 L CNN
F 2 "Resistor_SMD:R_0805_2012Metric" V 3340 4240 50  0001 C CNN
F 3 "~" H 3300 4250 50  0001 C CNN
	1    3300 4250
	-1   0    0    1   
$EndComp
$Comp
L Device:R_US R?
U 1 1 61BA0C2E
P 3200 3600
AR Path="/609302C0/61BA0C2E" Ref="R?"  Part="1" 
AR Path="/6093043F/61BA0C2E" Ref="R?"  Part="1" 
AR Path="/6092FBF4/61BA0C2E" Ref="R?"  Part="1" 
AR Path="/6115C67C/61BA0C2E" Ref="R?"  Part="1" 
AR Path="/61A2186F/61BA0C2E" Ref="R?"  Part="1" 
AR Path="/61A218D6/61BA0C2E" Ref="R13"  Part="1" 
F 0 "R13" H 3050 3550 50  0000 L CNN
F 1 "100K" H 2950 3650 50  0000 L CNN
F 2 "Resistor_SMD:R_0805_2012Metric" V 3240 3590 50  0001 C CNN
F 3 "~" H 3200 3600 50  0001 C CNN
	1    3200 3600
	-1   0    0    1   
$EndComp
Wire Wire Line
	3200 3750 3200 3800
Wire Wire Line
	3200 3800 3600 3800
Wire Wire Line
	3600 3800 3600 3700
Wire Wire Line
	3600 3800 3600 3850
Connection ~ 3600 3800
Wire Wire Line
	3250 4050 3300 4050
Wire Wire Line
	3300 4100 3300 4050
Connection ~ 3300 4050
Wire Wire Line
	3300 4050 3400 4050
Wire Wire Line
	3600 4450 3300 4450
Wire Wire Line
	3300 4400 3300 4450
Wire Wire Line
	3600 4250 3600 4450
Wire Wire Line
	3200 3450 3200 3400
Wire Wire Line
	3200 3400 3300 3400
$Comp
L power:+3V3 #PWR064
U 1 1 61BB95A7
P 7500 3550
F 0 "#PWR064" H 7500 3400 50  0001 C CNN
F 1 "+3V3" H 7515 3723 50  0000 C CNN
F 2 "" H 7500 3550 50  0001 C CNN
F 3 "" H 7500 3550 50  0001 C CNN
	1    7500 3550
	1    0    0    -1  
$EndComp
$Comp
L power:+3V3 #PWR056
U 1 1 61BC1C1F
P 3850 3350
F 0 "#PWR056" H 3850 3200 50  0001 C CNN
F 1 "+3V3" H 3865 3523 50  0000 C CNN
F 2 "" H 3850 3350 50  0001 C CNN
F 3 "" H 3850 3350 50  0001 C CNN
	1    3850 3350
	1    0    0    -1  
$EndComp
$Comp
L power:+3.3V #PWR?
U 1 1 61B163E0
P 3050 3350
AR Path="/61A2183E/61B163E0" Ref="#PWR?"  Part="1" 
AR Path="/61A218D6/61B163E0" Ref="#PWR054"  Part="1" 
F 0 "#PWR054" H 3050 3200 50  0001 C CNN
F 1 "+3.3V" H 3065 3523 50  0000 C CNN
F 2 "" H 3050 3350 50  0001 C CNN
F 3 "" H 3050 3350 50  0001 C CNN
	1    3050 3350
	1    0    0    -1  
$EndComp
$Comp
L power:+3V3 #PWR060
U 1 1 61BCB86F
P 5100 3550
F 0 "#PWR060" H 5100 3400 50  0001 C CNN
F 1 "+3V3" H 5115 3723 50  0000 C CNN
F 2 "" H 5100 3550 50  0001 C CNN
F 3 "" H 5100 3550 50  0001 C CNN
	1    5100 3550
	1    0    0    -1  
$EndComp
Wire Wire Line
	3700 3400 3850 3400
Wire Wire Line
	3850 3400 3850 3350
Wire Wire Line
	3200 3400 3050 3400
Wire Wire Line
	3050 3400 3050 3350
Connection ~ 3200 3400
Wire Wire Line
	7800 4750 7750 4750
Wire Wire Line
	7750 4750 7750 4800
$Comp
L power:GND #PWR?
U 1 1 61BD429E
P 3600 4500
AR Path="/61A2186F/61BD429E" Ref="#PWR?"  Part="1" 
AR Path="/61A218D6/61BD429E" Ref="#PWR055"  Part="1" 
F 0 "#PWR055" H 3600 4250 50  0001 C CNN
F 1 "GND" H 3605 4327 50  0000 C CNN
F 2 "" H 3600 4500 50  0001 C CNN
F 3 "" H 3600 4500 50  0001 C CNN
	1    3600 4500
	1    0    0    -1  
$EndComp
Wire Wire Line
	3600 4500 3600 4450
Connection ~ 3600 4450
Wire Wire Line
	2950 4050 2750 4050
Text Label 2750 4050 0    50   ~ 0
rst
Text HLabel 7750 3250 0    50   Input ~ 0
dc
Text HLabel 7750 3050 0    50   Input ~ 0
busy
Text HLabel 7750 3350 0    50   Input ~ 0
cs
Text HLabel 7750 3450 0    50   Input ~ 0
clk
Text HLabel 7750 3550 0    50   Input ~ 0
din
Wire Wire Line
	7750 3050 7800 3050
Wire Wire Line
	7750 3250 7800 3250
Wire Wire Line
	7750 3350 7800 3350
Wire Wire Line
	7750 3450 7800 3450
Wire Wire Line
	7750 3550 7800 3550
Text HLabel 7600 3150 0    50   Input ~ 0
rst
$Comp
L Device:C_Small C27
U 1 1 61B842FC
P 5350 3850
F 0 "C27" V 5400 3950 50  0000 C CNN
F 1 "4.7uF" V 5400 3700 50  0000 C CNN
F 2 "Capacitor_SMD:C_0805_2012Metric" H 5350 3850 50  0001 C CNN
F 3 "~" H 5350 3850 50  0001 C CNN
	1    5350 3850
	0    -1   -1   0   
$EndComp
$Comp
L Device:C_Small C26
U 1 1 61B8E04E
P 4800 3600
F 0 "C26" V 4850 3700 50  0000 C CNN
F 1 "4.7uF" V 4850 3450 50  0000 C CNN
F 2 "Capacitor_SMD:C_0805_2012Metric" H 4800 3600 50  0001 C CNN
F 3 "~" H 4800 3600 50  0001 C CNN
	1    4800 3600
	0    -1   -1   0   
$EndComp
Wire Wire Line
	5450 3850 5600 3850
Wire Wire Line
	4900 3600 5100 3600
Wire Wire Line
	7700 2350 7800 2350
Wire Wire Line
	7700 2450 7800 2450
$Comp
L 805_bobbin:Bob L?
U 1 1 61B972CA
P 5350 3600
AR Path="/61A2171E/61B972CA" Ref="L?"  Part="1" 
AR Path="/61A218D6/61B972CA" Ref="L5"  Part="1" 
F 0 "L5" H 5200 3700 50  0000 L TNN
F 1 "68uH" H 5600 3700 50  0000 R TNN
F 2 "Inductor_SMD:L_Taiyo-Yuden_MD-4040" H 5350 3600 50  0001 L BNN
F 3 "" H 5350 3600 50  0001 L BNN
	1    5350 3600
	1    0    0    -1  
$EndComp
Wire Wire Line
	7500 3650 7750 3650
Connection ~ 7750 3650
Wire Wire Line
	7450 3650 7500 3650
Connection ~ 7500 3650
Wire Wire Line
	7150 3650 7250 3650
NoConn ~ 7800 2250
$EndSCHEMATC
