EESchema Schematic File Version 4
EELAYER 30 0
EELAYER END
$Descr A4 11693 8268
encoding utf-8
Sheet 3 7
Title ""
Date ""
Rev ""
Comp ""
Comment1 ""
Comment2 ""
Comment3 ""
Comment4 ""
$EndDescr
Text HLabel 6500 4000 2    50   Input ~ 0
io0
Wire Wire Line
	6400 4000 6500 4000
Wire Wire Line
	6500 2500 6400 2500
$Comp
L SparkFun-RF:ESP8266 U2
U 1 1 61B73355
P 5550 3900
F 0 "U2" H 5550 5660 45  0000 C CNN
F 1 "ESP8266" H 5550 5576 45  0000 C CNN
F 2 "QFN-32" H 5550 5500 20  0001 C CNN
F 3 "" H 5550 3900 50  0001 C CNN
F 4 "IC-12452" H 5550 5481 60  0000 C CNN "Field4"
	1    5550 3900
	1    0    0    -1  
$EndComp
$Comp
L SparkFun-Clocks:CRYSTAL-26MHZSMD-3.2X2.5 Y2
U 1 1 61B79D73
P 4300 4000
F 0 "Y2" H 4300 4330 45  0000 C CNN
F 1 "CRYSTAL-26MHZSMD-3.2X2.5" V 4450 3600 45  0000 C CNN
F 2 "CRYSTAL-SMD-3.2X2.5MM" H 4300 4200 20  0001 C CNN
F 3 "" H 4300 4000 50  0001 C CNN
F 4 "XTAL-12454" V 4150 3950 60  0001 C CNN "Field4"
	1    4300 4000
	0    1    1    0   
$EndComp
$Comp
L SparkFun-IC-Memory:W25Q32FVSS U3
U 1 1 61B7A9D6
P 8500 4200
F 0 "U3" H 8500 4710 45  0000 C CNN
F 1 "W25Q32FVSS" H 8500 4626 45  0000 C CNN
F 2 "SOIC-8" H 8500 4550 20  0001 C CNN
F 3 "" H 8500 4200 50  0001 C CNN
F 4 "IC-13229" H 8500 4531 60  0000 C CNN "Field4"
	1    8500 4200
	1    0    0    -1  
$EndComp
$Comp
L Device:Antenna_Shield AE1
U 1 1 61B7E991
P 7600 2600
F 0 "AE1" H 7744 2639 50  0000 L CNN
F 1 "Antenna_Shield" H 7744 2548 50  0000 L CNN
F 2 "others:Texas_SWRA117D_2.4GHz_Right" H 7600 2700 50  0001 C CNN
F 3 "~" H 7600 2700 50  0001 C CNN
	1    7600 2600
	1    0    0    -1  
$EndComp
$Comp
L Device:C_Small C?
U 1 1 61B7F7B4
P 4300 2450
AR Path="/61A218D6/61B7F7B4" Ref="C?"  Part="1" 
AR Path="/61A217B5/61B7F7B4" Ref="C12"  Part="1" 
F 0 "C12" V 4350 2550 50  0000 C CNN
F 1 "1uF" V 4350 2350 50  0000 C CNN
F 2 "Capacitor_SMD:C_0805_2012Metric" H 4300 2450 50  0001 C CNN
F 3 "~" H 4300 2450 50  0001 C CNN
	1    4300 2450
	0    -1   -1   0   
$EndComp
$Comp
L Device:C_Small C?
U 1 1 61C08015
P 4450 4250
AR Path="/61A218D6/61C08015" Ref="C?"  Part="1" 
AR Path="/61A2171E/61C08015" Ref="C?"  Part="1" 
AR Path="/61A217B5/61C08015" Ref="C14"  Part="1" 
F 0 "C14" H 4350 4200 50  0000 L TNN
F 1 "6.8pF" H 4450 4300 50  0000 R BNN
F 2 "Capacitor_SMD:C_0805_2012Metric" H 4450 4250 50  0001 C CNN
F 3 "~" H 4450 4250 50  0001 C CNN
	1    4450 4250
	-1   0    0    1   
$EndComp
$Comp
L Device:C_Small C?
U 1 1 61C0A928
P 4450 3750
AR Path="/61A218D6/61C0A928" Ref="C?"  Part="1" 
AR Path="/61A2171E/61C0A928" Ref="C?"  Part="1" 
AR Path="/61A217B5/61C0A928" Ref="C13"  Part="1" 
F 0 "C13" H 4350 3700 50  0000 L TNN
F 1 "6.8pF" H 4450 3800 50  0000 R BNN
F 2 "Capacitor_SMD:C_0805_2012Metric" H 4450 3750 50  0001 C CNN
F 3 "~" H 4450 3750 50  0001 C CNN
	1    4450 3750
	-1   0    0    1   
$EndComp
$Comp
L power:GND #PWR026
U 1 1 61C0B4D8
P 4450 4350
F 0 "#PWR026" H 4450 4100 50  0001 C CNN
F 1 "GND" H 4455 4177 50  0000 C CNN
F 2 "" H 4450 4350 50  0001 C CNN
F 3 "" H 4450 4350 50  0001 C CNN
	1    4450 4350
	1    0    0    -1  
$EndComp
Wire Wire Line
	4450 3600 4100 3600
$Comp
L power:GND #PWR024
U 1 1 61C0BFA9
P 4000 3900
F 0 "#PWR024" H 4000 3650 50  0001 C CNN
F 1 "GND" H 4005 3727 50  0000 C CNN
F 2 "" H 4000 3900 50  0001 C CNN
F 3 "" H 4000 3900 50  0001 C CNN
	1    4000 3900
	1    0    0    -1  
$EndComp
Wire Wire Line
	4100 3850 4000 3850
Wire Wire Line
	4000 3850 4000 3900
Connection ~ 4100 3850
Wire Wire Line
	4100 3850 4100 4000
Wire Wire Line
	4300 3900 4450 3900
Wire Wire Line
	4450 3600 4450 3650
Wire Wire Line
	4100 3600 4100 3850
Wire Wire Line
	4450 3850 4450 3900
Connection ~ 4450 3900
Wire Wire Line
	4450 3900 4700 3900
Wire Wire Line
	4300 4100 4450 4100
Wire Wire Line
	4450 4100 4450 4150
Connection ~ 4450 4100
Wire Wire Line
	4450 4100 4700 4100
$Comp
L power:GND #PWR030
U 1 1 61C0FA18
P 4700 5250
F 0 "#PWR030" H 4700 5000 50  0001 C CNN
F 1 "GND" H 4705 5077 50  0000 C CNN
F 2 "" H 4700 5250 50  0001 C CNN
F 3 "" H 4700 5250 50  0001 C CNN
	1    4700 5250
	1    0    0    -1  
$EndComp
Wire Wire Line
	4700 5250 4700 5200
$Comp
L Device:R_US R?
U 1 1 61C108D3
P 4600 4700
AR Path="/609302C0/61C108D3" Ref="R?"  Part="1" 
AR Path="/6093043F/61C108D3" Ref="R?"  Part="1" 
AR Path="/6092FBF4/61C108D3" Ref="R?"  Part="1" 
AR Path="/6115C67C/61C108D3" Ref="R?"  Part="1" 
AR Path="/61A2186F/61C108D3" Ref="R?"  Part="1" 
AR Path="/61A218D6/61C108D3" Ref="R?"  Part="1" 
AR Path="/61A217B5/61C108D3" Ref="R5"  Part="1" 
F 0 "R5" H 4450 4650 50  0000 L CNN
F 1 "12K" H 4550 4750 50  0000 R BNN
F 2 "Resistor_SMD:R_0805_2012Metric" V 4640 4690 50  0001 C CNN
F 3 "~" H 4600 4700 50  0001 C CNN
	1    4600 4700
	-1   0    0    1   
$EndComp
Wire Wire Line
	4600 4550 4600 4500
Wire Wire Line
	4600 4500 4700 4500
$Comp
L power:GND #PWR029
U 1 1 61C1204A
P 4600 4850
F 0 "#PWR029" H 4600 4600 50  0001 C CNN
F 1 "GND" H 4605 4677 50  0000 C CNN
F 2 "" H 4600 4850 50  0001 C CNN
F 3 "" H 4600 4850 50  0001 C CNN
	1    4600 4850
	1    0    0    -1  
$EndComp
Wire Wire Line
	4700 2700 4700 2600
Connection ~ 4700 2600
Wire Wire Line
	4700 2500 4700 2600
Wire Wire Line
	4700 2500 4700 2450
Connection ~ 4700 2500
$Comp
L Device:C_Small C?
U 1 1 61C180A7
P 3700 2950
AR Path="/61A218D6/61C180A7" Ref="C?"  Part="1" 
AR Path="/61A2171E/61C180A7" Ref="C?"  Part="1" 
AR Path="/61A217B5/61C180A7" Ref="C10"  Part="1" 
F 0 "C10" H 3600 2900 50  0000 L TNN
F 1 "10uF" H 3700 3000 50  0000 R BNN
F 2 "Capacitor_SMD:C_0805_2012Metric" H 3700 2950 50  0001 C CNN
F 3 "~" H 3700 2950 50  0001 C CNN
	1    3700 2950
	-1   0    0    1   
$EndComp
$Comp
L Device:C_Small C?
U 1 1 61C187C1
P 3900 2950
AR Path="/61A218D6/61C187C1" Ref="C?"  Part="1" 
AR Path="/61A2171E/61C187C1" Ref="C?"  Part="1" 
AR Path="/61A217B5/61C187C1" Ref="C11"  Part="1" 
F 0 "C11" H 3800 2900 50  0000 L TNN
F 1 "0.1uF" H 3900 3000 50  0000 R BNN
F 2 "Capacitor_SMD:C_0805_2012Metric" H 3900 2950 50  0001 C CNN
F 3 "~" H 3900 2950 50  0001 C CNN
	1    3900 2950
	-1   0    0    1   
$EndComp
$Comp
L 805_bobbin:Bob L?
U 1 1 61C1976B
P 4250 2800
AR Path="/61A2171E/61C1976B" Ref="L?"  Part="1" 
AR Path="/61A217B5/61C1976B" Ref="L2"  Part="1" 
F 0 "L2" H 4000 2900 50  0000 L TNN
F 1 "4.3nH" H 4650 2900 50  0000 R TNN
F 2 "Inductor_SMD:L_0805_2012Metric" H 4250 2800 50  0001 L BNN
F 3 "" H 4250 2800 50  0001 L BNN
	1    4250 2800
	1    0    0    -1  
$EndComp
$Comp
L power:GND #PWR025
U 1 1 61C23411
P 4200 2450
F 0 "#PWR025" H 4200 2200 50  0001 C CNN
F 1 "GND" H 4205 2277 50  0000 C CNN
F 2 "" H 4200 2450 50  0001 C CNN
F 3 "" H 4200 2450 50  0001 C CNN
	1    4200 2450
	1    0    0    -1  
$EndComp
$Comp
L power:GND #PWR022
U 1 1 61C23CFB
P 3700 3050
F 0 "#PWR022" H 3700 2800 50  0001 C CNN
F 1 "GND" H 3705 2877 50  0000 C CNN
F 2 "" H 3700 3050 50  0001 C CNN
F 3 "" H 3700 3050 50  0001 C CNN
	1    3700 3050
	1    0    0    -1  
$EndComp
$Comp
L power:GND #PWR023
U 1 1 61C244BC
P 3900 3050
F 0 "#PWR023" H 3900 2800 50  0001 C CNN
F 1 "GND" H 3905 2877 50  0000 C CNN
F 2 "" H 3900 3050 50  0001 C CNN
F 3 "" H 3900 3050 50  0001 C CNN
	1    3900 3050
	1    0    0    -1  
$EndComp
Wire Wire Line
	3700 2850 3700 2800
Wire Wire Line
	3700 2800 3900 2800
Wire Wire Line
	3900 2850 3900 2800
Connection ~ 3900 2800
Wire Wire Line
	3900 2800 4050 2800
Wire Wire Line
	4450 2800 4700 2800
$Comp
L power:+3.3VA #PWR028
U 1 1 61C28940
P 4550 2400
F 0 "#PWR028" H 4550 2250 50  0001 C CNN
F 1 "+3.3VA" H 4565 2573 50  0000 C CNN
F 2 "" H 4550 2400 50  0001 C CNN
F 3 "" H 4550 2400 50  0001 C CNN
	1    4550 2400
	1    0    0    -1  
$EndComp
Wire Wire Line
	4400 2450 4550 2450
$Comp
L power:+3.3VA #PWR021
U 1 1 61C29D56
P 3700 2750
F 0 "#PWR021" H 3700 2600 50  0001 C CNN
F 1 "+3.3VA" H 3715 2923 50  0000 C CNN
F 2 "" H 3700 2750 50  0001 C CNN
F 3 "" H 3700 2750 50  0001 C CNN
	1    3700 2750
	1    0    0    -1  
$EndComp
Wire Wire Line
	4700 2900 4700 2800
Connection ~ 4700 2800
$Comp
L power:+3.3VA #PWR027
U 1 1 61C2C48C
P 4500 3050
F 0 "#PWR027" H 4500 2900 50  0001 C CNN
F 1 "+3.3VA" H 4515 3223 50  0000 C CNN
F 2 "" H 4500 3050 50  0001 C CNN
F 3 "" H 4500 3050 50  0001 C CNN
	1    4500 3050
	1    0    0    -1  
$EndComp
Wire Wire Line
	4700 3000 4700 3100
Wire Wire Line
	4700 3100 4500 3100
Wire Wire Line
	4500 3100 4500 3050
Connection ~ 4700 3100
Wire Wire Line
	3700 2750 3700 2800
Connection ~ 3700 2800
Wire Wire Line
	4550 2400 4550 2450
Connection ~ 4550 2450
Wire Wire Line
	4550 2450 4700 2450
NoConn ~ 4700 3400
$Comp
L 805_bobbin:Bob L?
U 1 1 61C33470
P 7150 2800
AR Path="/61A2171E/61C33470" Ref="L?"  Part="1" 
AR Path="/61A217B5/61C33470" Ref="L3"  Part="1" 
F 0 "L3" H 6900 2900 50  0000 L TNN
F 1 "4.3nH" H 7550 2900 50  0000 R TNN
F 2 "Inductor_SMD:L_0805_2012Metric" H 7150 2800 50  0001 L BNN
F 3 "" H 7150 2800 50  0001 L BNN
	1    7150 2800
	1    0    0    -1  
$EndComp
$Comp
L Device:C_Small C?
U 1 1 61C34FE4
P 7400 2950
AR Path="/61A218D6/61C34FE4" Ref="C?"  Part="1" 
AR Path="/61A2171E/61C34FE4" Ref="C?"  Part="1" 
AR Path="/61A217B5/61C34FE4" Ref="C16"  Part="1" 
F 0 "C16" H 7300 2900 50  0000 L TNN
F 1 "2.4pF" H 7400 3000 50  0000 R BNN
F 2 "Capacitor_SMD:C_0805_2012Metric" H 7400 2950 50  0001 C CNN
F 3 "~" H 7400 2950 50  0001 C CNN
	1    7400 2950
	-1   0    0    1   
$EndComp
$Comp
L Device:C_Small C?
U 1 1 61C35FCE
P 6850 2950
AR Path="/61A218D6/61C35FCE" Ref="C?"  Part="1" 
AR Path="/61A2171E/61C35FCE" Ref="C?"  Part="1" 
AR Path="/61A217B5/61C35FCE" Ref="C15"  Part="1" 
F 0 "C15" H 6750 2900 50  0000 L TNN
F 1 "3.0pF" H 6850 3000 50  0000 R BNN
F 2 "Capacitor_SMD:C_0805_2012Metric" H 6850 2950 50  0001 C CNN
F 3 "~" H 6850 2950 50  0001 C CNN
	1    6850 2950
	-1   0    0    1   
$EndComp
Wire Wire Line
	6400 2800 6850 2800
Wire Wire Line
	6850 2850 6850 2800
Connection ~ 6850 2800
Wire Wire Line
	6850 2800 6950 2800
Wire Wire Line
	7350 2800 7400 2800
Wire Wire Line
	7400 2800 7400 2850
Wire Wire Line
	7400 2800 7600 2800
Connection ~ 7400 2800
$Comp
L power:GND #PWR032
U 1 1 61C406A8
P 6850 3050
F 0 "#PWR032" H 6850 2800 50  0001 C CNN
F 1 "GND" H 6855 2877 50  0000 C CNN
F 2 "" H 6850 3050 50  0001 C CNN
F 3 "" H 6850 3050 50  0001 C CNN
	1    6850 3050
	1    0    0    -1  
$EndComp
$Comp
L power:GND #PWR033
U 1 1 61C41732
P 7400 3050
F 0 "#PWR033" H 7400 2800 50  0001 C CNN
F 1 "GND" H 7405 2877 50  0000 C CNN
F 2 "" H 7400 3050 50  0001 C CNN
F 3 "" H 7400 3050 50  0001 C CNN
	1    7400 3050
	1    0    0    -1  
$EndComp
$Comp
L power:GND #PWR034
U 1 1 61C438C9
P 7700 2800
F 0 "#PWR034" H 7700 2550 50  0001 C CNN
F 1 "GND" H 7705 2627 50  0000 C CNN
F 2 "" H 7700 2800 50  0001 C CNN
F 3 "" H 7700 2800 50  0001 C CNN
	1    7700 2800
	1    0    0    -1  
$EndComp
Text Label 6450 3000 0    50   ~ 0
scs\cmd
Text Label 6450 3200 0    50   ~ 0
sdo\sd0
Text Label 6450 3500 0    50   ~ 0
swp\sd3
Wire Wire Line
	9100 4150 9200 4150
Wire Wire Line
	9100 4250 9200 4250
Wire Wire Line
	9100 4350 9200 4350
Text Label 7800 4050 2    50   ~ 0
scs\cmd
Text Label 7800 4150 2    50   ~ 0
sdo\sd0
Text Label 7800 4250 2    50   ~ 0
swp\sd3
Wire Wire Line
	7800 4050 7900 4050
Wire Wire Line
	7800 4150 7900 4150
Wire Wire Line
	7800 4250 7900 4250
Text Label 9200 4350 0    50   ~ 0
sdi\sd1
Text Label 9200 4250 0    50   ~ 0
sck\clk
Text Label 9200 4150 0    50   ~ 0
shd\sd2
Text Label 6450 3400 0    50   ~ 0
shd\sd2
Text Label 6450 3100 0    50   ~ 0
sck\clk
Text Label 6450 3300 0    50   ~ 0
sdi\sd1
Wire Wire Line
	6400 3000 6450 3000
Wire Wire Line
	6400 3100 6450 3100
Wire Wire Line
	6400 3200 6450 3200
Wire Wire Line
	6400 3300 6450 3300
Wire Wire Line
	6400 3400 6450 3400
Wire Wire Line
	6400 3500 6450 3500
$Comp
L power:GND #PWR035
U 1 1 61C743B4
P 7850 4400
F 0 "#PWR035" H 7850 4150 50  0001 C CNN
F 1 "GND" H 7855 4227 50  0000 C CNN
F 2 "" H 7850 4400 50  0001 C CNN
F 3 "" H 7850 4400 50  0001 C CNN
	1    7850 4400
	1    0    0    -1  
$EndComp
$Comp
L power:+3.3VA #PWR036
U 1 1 61C78811
P 9150 4000
F 0 "#PWR036" H 9150 3850 50  0001 C CNN
F 1 "+3.3VA" H 9165 4173 50  0000 C CNN
F 2 "" H 9150 4000 50  0001 C CNN
F 3 "" H 9150 4000 50  0001 C CNN
	1    9150 4000
	1    0    0    -1  
$EndComp
Wire Wire Line
	9100 4050 9150 4050
Wire Wire Line
	9150 4050 9150 4000
Wire Wire Line
	7900 4350 7850 4350
Wire Wire Line
	7850 4350 7850 4400
Text HLabel 6500 3800 2    50   Input ~ 0
tx
Wire Wire Line
	6500 3800 6400 3800
Text HLabel 6500 3700 2    50   Input ~ 0
rx
Wire Wire Line
	6500 3700 6400 3700
$Comp
L power:+3.3VA #PWR020
U 1 1 61C68560
P 3200 5300
F 0 "#PWR020" H 3200 5150 50  0001 C CNN
F 1 "+3.3VA" H 3215 5473 50  0000 C CNN
F 2 "" H 3200 5300 50  0001 C CNN
F 3 "" H 3200 5300 50  0001 C CNN
	1    3200 5300
	1    0    0    -1  
$EndComp
Connection ~ 3000 4650
Wire Wire Line
	3000 4650 3000 4500
Wire Wire Line
	3000 5150 3000 5300
$Comp
L power:+3.3V #PWR?
U 1 1 61C60F3C
P 3000 4500
AR Path="/61A2183E/61C60F3C" Ref="#PWR?"  Part="1" 
AR Path="/61A218D6/61C60F3C" Ref="#PWR?"  Part="1" 
AR Path="/61A217B5/61C60F3C" Ref="#PWR019"  Part="1" 
F 0 "#PWR019" H 3000 4350 50  0001 C CNN
F 1 "+3.3V" H 3015 4673 50  0000 C CNN
F 2 "" H 3000 4500 50  0001 C CNN
F 3 "" H 3000 4500 50  0001 C CNN
	1    3000 4500
	1    0    0    -1  
$EndComp
Wire Wire Line
	3000 4650 3000 4750
Wire Wire Line
	2950 4650 3000 4650
Connection ~ 2600 5050
Wire Wire Line
	2600 5050 2550 5050
Wire Wire Line
	2600 5050 2700 5050
Wire Wire Line
	2600 4650 2600 5050
Wire Wire Line
	2650 4650 2600 4650
$Comp
L Device:R_US R?
U 1 1 61C60F22
P 2800 4650
AR Path="/609302C0/61C60F22" Ref="R?"  Part="1" 
AR Path="/6093043F/61C60F22" Ref="R?"  Part="1" 
AR Path="/6092FBF4/61C60F22" Ref="R?"  Part="1" 
AR Path="/6115C67C/61C60F22" Ref="R?"  Part="1" 
AR Path="/61A2186F/61C60F22" Ref="R?"  Part="1" 
AR Path="/61A218D6/61C60F22" Ref="R?"  Part="1" 
AR Path="/61A217B5/61C60F22" Ref="R4"  Part="1" 
F 0 "R4" V 2900 4600 50  0000 L CNN
F 1 "100K" V 2700 4550 50  0000 L CNN
F 2 "Resistor_SMD:R_0805_2012Metric" V 2840 4640 50  0001 C CNN
F 3 "~" H 2800 4650 50  0001 C CNN
	1    2800 4650
	0    -1   -1   0   
$EndComp
$Comp
L dk_Transistors-FETs-MOSFETs-Single:AO3401A Q?
U 1 1 61C60F06
P 3000 4950
AR Path="/61A218D6/61C60F06" Ref="Q?"  Part="1" 
AR Path="/61A217B5/61C60F06" Ref="Q1"  Part="1" 
F 0 "Q1" H 3100 5050 60  0000 L CNN
F 1 "AO3401A" H 3100 4950 60  0000 L CNN
F 2 "digikey-footprints:SOT-23-3" H 3200 5150 60  0001 L CNN
F 3 "http://aosmd.com/res/data_sheets/AO3401A.pdf" H 3200 5250 60  0001 L CNN
F 4 "785-1001-1-ND" H 3200 5350 60  0001 L CNN "Digi-Key_PN"
F 5 "AO3401A" H 3200 5450 60  0001 L CNN "MPN"
F 6 "Discrete Semiconductor Products" H 3200 5550 60  0001 L CNN "Category"
F 7 "Transistors - FETs, MOSFETs - Single" H 3200 5650 60  0001 L CNN "Family"
F 8 "http://aosmd.com/res/data_sheets/AO3401A.pdf" H 3200 5750 60  0001 L CNN "DK_Datasheet_Link"
F 9 "/product-detail/en/alpha-omega-semiconductor-inc/AO3401A/785-1001-1-ND/1855943" H 3200 5850 60  0001 L CNN "DK_Detail_Page"
F 10 "MOSFET P-CH 30V 4A SOT23" H 3200 5950 60  0001 L CNN "Description"
F 11 "Alpha & Omega Semiconductor Inc." H 3200 6050 60  0001 L CNN "Manufacturer"
F 12 "Active" H 3200 6150 60  0001 L CNN "Status"
	1    3000 4950
	1    0    0    -1  
$EndComp
Wire Wire Line
	6400 2600 6500 2600
Text HLabel 6500 2600 2    50   Input ~ 0
rst
Wire Wire Line
	3000 5300 3200 5300
Text HLabel 2550 5050 0    50   Input ~ 0
pwr
$Comp
L power:+3.3VA #PWR031
U 1 1 61BB3CF2
P 6500 2450
F 0 "#PWR031" H 6500 2300 50  0001 C CNN
F 1 "+3.3VA" H 6515 2623 50  0000 C CNN
F 2 "" H 6500 2450 50  0001 C CNN
F 3 "" H 6500 2450 50  0001 C CNN
	1    6500 2450
	1    0    0    -1  
$EndComp
Wire Wire Line
	6500 2450 6500 2500
$EndSCHEMATC
