EESchema Schematic File Version 4
EELAYER 30 0
EELAYER END
$Descr A4 11693 8268
encoding utf-8
Sheet 5 7
Title ""
Date ""
Rev ""
Comp ""
Comment1 ""
Comment2 ""
Comment3 ""
Comment4 ""
$EndDescr
$Comp
L XFL4020-102MEC:XFL4020-102MEC L4
U 1 1 60AAC7A2
P 3750 1650
F 0 "L4" H 3750 1831 50  0000 C CNN
F 1 "XFL4020-102MEC" H 3750 1740 50  0000 C CNN
F 2 "others:XFL4020-102MEC" H 3750 1650 50  0001 L BNN
F 3 "" H 3750 1650 50  0001 L BNN
F 4 "Power inductor, shielded, 20% tol, SMT, RoHS, halogen free" H 3750 1650 50  0001 L BNN "DESCRIPTION"
F 5 "2.1mm" H 3750 1650 50  0001 L BNN "MAXIMUM_PACKAGE_HEIGHT"
F 6 "Coilcraft" H 3750 1650 50  0001 L BNN "MANUFACTURER"
F 7 "11/02/18" H 3750 1650 50  0001 L BNN "PARTREV"
F 8 "Manufacturer Recommendations" H 3750 1650 50  0001 L BNN "STANDARD"
	1    3750 1650
	1    0    0    -1  
$EndComp
Wire Wire Line
	4450 2050 4600 2050
Wire Wire Line
	4600 2050 4600 1650
Wire Wire Line
	4600 1650 4250 1650
Wire Wire Line
	3250 1650 2900 1650
Wire Wire Line
	2900 1650 2900 2050
Wire Wire Line
	2900 2050 3050 2050
$Comp
L Device:R_US R?
U 1 1 60AB02A2
P 5350 2250
AR Path="/609302C0/60AB02A2" Ref="R?"  Part="1" 
AR Path="/6093043F/60AB02A2" Ref="R?"  Part="1" 
AR Path="/6092FBF4/60AB02A2" Ref="R?"  Part="1" 
AR Path="/6115C67C/60AB02A2" Ref="R?"  Part="1" 
AR Path="/61A2186F/60AB02A2" Ref="R7"  Part="1" 
F 0 "R7" H 5418 2296 50  0000 L CNN
F 1 "470K %1" H 5418 2205 50  0000 L CNN
F 2 "Resistor_SMD:R_0805_2012Metric" V 5390 2240 50  0001 C CNN
F 3 "~" H 5350 2250 50  0001 C CNN
	1    5350 2250
	1    0    0    -1  
$EndComp
$Comp
L Device:R_US R?
U 1 1 60AB2D62
P 5350 2600
AR Path="/609302C0/60AB2D62" Ref="R?"  Part="1" 
AR Path="/6093043F/60AB2D62" Ref="R?"  Part="1" 
AR Path="/6092FBF4/60AB2D62" Ref="R?"  Part="1" 
AR Path="/6115C67C/60AB2D62" Ref="R?"  Part="1" 
AR Path="/61A2186F/60AB2D62" Ref="R8"  Part="1" 
F 0 "R8" H 5418 2646 50  0000 L CNN
F 1 "150K %1" H 5418 2555 50  0000 L CNN
F 2 "Resistor_SMD:R_0805_2012Metric" V 5390 2590 50  0001 C CNN
F 3 "~" H 5350 2600 50  0001 C CNN
	1    5350 2600
	1    0    0    -1  
$EndComp
$Comp
L Device:R_US R?
U 1 1 60AB2FAB
P 2400 2700
AR Path="/609302C0/60AB2FAB" Ref="R?"  Part="1" 
AR Path="/6093043F/60AB2FAB" Ref="R?"  Part="1" 
AR Path="/6092FBF4/60AB2FAB" Ref="R?"  Part="1" 
AR Path="/6115C67C/60AB2FAB" Ref="R?"  Part="1" 
AR Path="/61A2186F/60AB2FAB" Ref="R6"  Part="1" 
F 0 "R6" H 2468 2746 50  0000 L CNN
F 1 "10K" H 2468 2655 50  0000 L CNN
F 2 "Resistor_SMD:R_0805_2012Metric" V 2440 2690 50  0001 C CNN
F 3 "~" H 2400 2700 50  0001 C CNN
	1    2400 2700
	1    0    0    -1  
$EndComp
$Comp
L power:GND #PWR046
U 1 1 60AB4052
P 5000 2200
F 0 "#PWR046" H 5000 1950 50  0001 C CNN
F 1 "GND" H 5005 2027 50  0000 C CNN
F 2 "" H 5000 2200 50  0001 C CNN
F 3 "" H 5000 2200 50  0001 C CNN
	1    5000 2200
	1    0    0    -1  
$EndComp
$Comp
L power:GND #PWR048
U 1 1 60AB4CDA
P 6050 2200
F 0 "#PWR048" H 6050 1950 50  0001 C CNN
F 1 "GND" H 6055 2027 50  0000 C CNN
F 2 "" H 6050 2200 50  0001 C CNN
F 3 "" H 6050 2200 50  0001 C CNN
	1    6050 2200
	1    0    0    -1  
$EndComp
$Comp
L power:GND #PWR049
U 1 1 60AB4DD5
P 6450 2200
F 0 "#PWR049" H 6450 1950 50  0001 C CNN
F 1 "GND" H 6455 2027 50  0000 C CNN
F 2 "" H 6450 2200 50  0001 C CNN
F 3 "" H 6450 2200 50  0001 C CNN
	1    6450 2200
	1    0    0    -1  
$EndComp
$Comp
L power:GND #PWR051
U 1 1 60AB50CB
P 6850 2200
F 0 "#PWR051" H 6850 1950 50  0001 C CNN
F 1 "GND" H 6855 2027 50  0000 C CNN
F 2 "" H 6850 2200 50  0001 C CNN
F 3 "" H 6850 2200 50  0001 C CNN
	1    6850 2200
	1    0    0    -1  
$EndComp
$Comp
L power:GND #PWR047
U 1 1 60AB5318
P 5350 2800
F 0 "#PWR047" H 5350 2550 50  0001 C CNN
F 1 "GND" H 5355 2627 50  0000 C CNN
F 2 "" H 5350 2800 50  0001 C CNN
F 3 "" H 5350 2800 50  0001 C CNN
	1    5350 2800
	1    0    0    -1  
$EndComp
$Comp
L power:GND #PWR044
U 1 1 60AB54F3
P 3000 3350
F 0 "#PWR044" H 3000 3100 50  0001 C CNN
F 1 "GND" H 3005 3177 50  0000 C CNN
F 2 "" H 3000 3350 50  0001 C CNN
F 3 "" H 3000 3350 50  0001 C CNN
	1    3000 3350
	1    0    0    -1  
$EndComp
$Comp
L power:GND #PWR043
U 1 1 60AB5689
P 2550 2350
F 0 "#PWR043" H 2550 2100 50  0001 C CNN
F 1 "GND" H 2555 2177 50  0000 C CNN
F 2 "" H 2550 2350 50  0001 C CNN
F 3 "" H 2550 2350 50  0001 C CNN
	1    2550 2350
	1    0    0    -1  
$EndComp
$Comp
L power:GND #PWR042
U 1 1 60AB576E
P 2050 2350
F 0 "#PWR042" H 2050 2100 50  0001 C CNN
F 1 "GND" H 2055 2177 50  0000 C CNN
F 2 "" H 2050 2350 50  0001 C CNN
F 3 "" H 2050 2350 50  0001 C CNN
	1    2050 2350
	1    0    0    -1  
$EndComp
Wire Wire Line
	4450 2400 5350 2400
Wire Wire Line
	5350 2400 5350 2450
Connection ~ 5350 2400
Wire Wire Line
	5350 2100 5350 1900
Wire Wire Line
	4750 1900 4750 2150
Wire Wire Line
	4750 2150 4450 2150
$Comp
L power:GND #PWR045
U 1 1 60AB732E
P 4450 3100
F 0 "#PWR045" H 4450 2850 50  0001 C CNN
F 1 "GND" H 4455 2927 50  0000 C CNN
F 2 "" H 4450 3100 50  0001 C CNN
F 3 "" H 4450 3100 50  0001 C CNN
	1    4450 3100
	1    0    0    -1  
$EndComp
Wire Wire Line
	3050 3050 3000 3050
Wire Wire Line
	3000 3050 3000 3100
Wire Wire Line
	3050 2150 2800 2150
Wire Wire Line
	2800 2150 2800 2050
Wire Wire Line
	2400 2900 3050 2900
Connection ~ 2400 2050
Wire Wire Line
	2400 2050 2050 2050
$Comp
L power:VCC #PWR041
U 1 1 60ABD311
P 2050 2000
F 0 "#PWR041" H 2050 1850 50  0001 C CNN
F 1 "VCC" H 2065 2173 50  0000 C CNN
F 2 "" H 2050 2000 50  0001 C CNN
F 3 "" H 2050 2000 50  0001 C CNN
	1    2050 2000
	1    0    0    -1  
$EndComp
$Comp
L Device:R_US R?
U 1 1 60ACA012
P 9050 2200
AR Path="/609302C0/60ACA012" Ref="R?"  Part="1" 
AR Path="/6093043F/60ACA012" Ref="R?"  Part="1" 
AR Path="/6092FBF4/60ACA012" Ref="R?"  Part="1" 
AR Path="/6115C67C/60ACA012" Ref="R?"  Part="1" 
AR Path="/61A2186F/60ACA012" Ref="R10"  Part="1" 
F 0 "R10" H 9118 2246 50  0000 L CNN
F 1 "560K %1" H 9118 2155 50  0000 L CNN
F 2 "Resistor_SMD:R_0805_2012Metric" V 9090 2190 50  0001 C CNN
F 3 "~" H 9050 2200 50  0001 C CNN
	1    9050 2200
	1    0    0    -1  
$EndComp
$Comp
L Device:R_US R?
U 1 1 60ACA018
P 9050 2600
AR Path="/609302C0/60ACA018" Ref="R?"  Part="1" 
AR Path="/6093043F/60ACA018" Ref="R?"  Part="1" 
AR Path="/6092FBF4/60ACA018" Ref="R?"  Part="1" 
AR Path="/6115C67C/60ACA018" Ref="R?"  Part="1" 
AR Path="/61A2186F/60ACA018" Ref="R11"  Part="1" 
F 0 "R11" H 9118 2646 50  0000 L CNN
F 1 "100K %1" H 9118 2555 50  0000 L CNN
F 2 "Resistor_SMD:R_0805_2012Metric" V 9090 2590 50  0001 C CNN
F 3 "~" H 9050 2600 50  0001 C CNN
	1    9050 2600
	1    0    0    -1  
$EndComp
$Comp
L power:GND #PWR053
U 1 1 60ACA01E
P 9050 2800
F 0 "#PWR053" H 9050 2550 50  0001 C CNN
F 1 "GND" H 9055 2627 50  0000 C CNN
F 2 "" H 9050 2800 50  0001 C CNN
F 3 "" H 9050 2800 50  0001 C CNN
	1    9050 2800
	1    0    0    -1  
$EndComp
Wire Wire Line
	9050 2400 9050 2450
Text HLabel 8900 2400 0    50   Input ~ 0
batD
Wire Wire Line
	8900 2400 9050 2400
Wire Wire Line
	2400 2850 2400 2900
Wire Wire Line
	2400 2050 2400 2550
Wire Wire Line
	2050 2050 2050 2000
Wire Wire Line
	9050 2050 9050 1950
$Comp
L Device:R_US R?
U 1 1 6098B622
P 5700 2250
AR Path="/609302C0/6098B622" Ref="R?"  Part="1" 
AR Path="/6093043F/6098B622" Ref="R?"  Part="1" 
AR Path="/6092FBF4/6098B622" Ref="R?"  Part="1" 
AR Path="/6115C67C/6098B622" Ref="R?"  Part="1" 
AR Path="/61A2186F/6098B622" Ref="R9"  Part="1" 
F 0 "R9" H 5768 2296 50  0000 L CNN
F 1 "100K" H 5768 2205 50  0000 L CNN
F 2 "Resistor_SMD:R_0805_2012Metric" V 5740 2240 50  0001 C CNN
F 3 "~" H 5700 2250 50  0001 C CNN
	1    5700 2250
	1    0    0    -1  
$EndComp
Wire Wire Line
	4450 2650 5000 2650
Wire Wire Line
	5000 2650 5000 3050
Wire Wire Line
	5000 3050 5700 3050
Wire Wire Line
	5700 3050 5700 2400
Wire Wire Line
	5700 2100 5700 1900
Wire Wire Line
	5700 1900 5350 1900
Connection ~ 5700 1900
Connection ~ 5350 1900
Wire Wire Line
	9050 2800 9050 2750
Wire Wire Line
	3000 3350 3000 3300
Wire Wire Line
	2050 2350 2050 2300
Wire Wire Line
	2550 2350 2550 2300
Wire Wire Line
	5350 2800 5350 2750
Wire Wire Line
	6850 2200 6850 2150
Wire Wire Line
	6450 2200 6450 2150
Wire Wire Line
	6050 2200 6050 2150
Wire Wire Line
	5000 2200 5000 2150
Wire Wire Line
	9050 2400 9050 2350
Connection ~ 9050 2400
Wire Wire Line
	3050 2650 3050 2900
$Comp
L power:+3.3V #PWR050
U 1 1 6117462E
P 6850 1900
F 0 "#PWR050" H 6850 1750 50  0001 C CNN
F 1 "+3.3V" H 6865 2073 50  0000 C CNN
F 2 "" H 6850 1900 50  0001 C CNN
F 3 "" H 6850 1900 50  0001 C CNN
	1    6850 1900
	1    0    0    -1  
$EndComp
$Comp
L power:VCC #PWR052
U 1 1 61314371
P 9050 1950
F 0 "#PWR052" H 9050 1800 50  0001 C CNN
F 1 "VCC" H 9065 2123 50  0000 C CNN
F 2 "" H 9050 1950 50  0001 C CNN
F 3 "" H 9050 1950 50  0001 C CNN
	1    9050 1950
	1    0    0    -1  
$EndComp
Wire Wire Line
	4450 2750 4450 2850
Connection ~ 4450 2850
Wire Wire Line
	4450 3100 4450 3050
Connection ~ 4450 3050
Wire Wire Line
	4450 2950 4450 2850
Wire Wire Line
	4450 2950 4450 3050
Connection ~ 4450 2950
$Comp
L TPS63070RNMT:TPS630702RNMR U5
U 1 1 60AAA908
P 3750 2550
F 0 "U5" H 3750 3320 50  0000 C CNN
F 1 "TPS630702RNMR" H 3750 3229 50  0000 C CNN
F 2 "others:TPS63070RNMT" H 3750 2550 50  0001 L BNN
F 3 "" H 3750 2550 50  0001 L BNN
	1    3750 2550
	1    0    0    -1  
$EndComp
Wire Wire Line
	3050 2550 3050 2650
Connection ~ 3050 2650
$Comp
L Device:C_Small C?
U 1 1 61CE3191
P 2050 2200
AR Path="/61A218D6/61CE3191" Ref="C?"  Part="1" 
AR Path="/61A2171E/61CE3191" Ref="C?"  Part="1" 
AR Path="/61A217B5/61CE3191" Ref="C?"  Part="1" 
AR Path="/61A2186F/61CE3191" Ref="C19"  Part="1" 
F 0 "C19" H 1950 2150 50  0000 L TNN
F 1 "22uF" H 2050 2250 50  0000 R BNN
F 2 "Capacitor_SMD:C_0805_2012Metric" H 2050 2200 50  0001 C CNN
F 3 "~" H 2050 2200 50  0001 C CNN
	1    2050 2200
	-1   0    0    1   
$EndComp
$Comp
L Device:C_Small C?
U 1 1 61CE3D86
P 2550 2200
AR Path="/61A218D6/61CE3D86" Ref="C?"  Part="1" 
AR Path="/61A2171E/61CE3D86" Ref="C?"  Part="1" 
AR Path="/61A217B5/61CE3D86" Ref="C?"  Part="1" 
AR Path="/61A2186F/61CE3D86" Ref="C20"  Part="1" 
F 0 "C20" H 2450 2150 50  0000 L TNN
F 1 "10uF" H 2550 2250 50  0000 R BNN
F 2 "Capacitor_SMD:C_0805_2012Metric" H 2550 2200 50  0001 C CNN
F 3 "~" H 2550 2200 50  0001 C CNN
	1    2550 2200
	-1   0    0    1   
$EndComp
Wire Wire Line
	2400 2050 2550 2050
Wire Wire Line
	2050 2100 2050 2050
Connection ~ 2050 2050
Wire Wire Line
	2550 2050 2550 2100
Connection ~ 2550 2050
Wire Wire Line
	2550 2050 2800 2050
$Comp
L Device:C_Small C?
U 1 1 61CEC09D
P 5000 2050
AR Path="/61A218D6/61CEC09D" Ref="C?"  Part="1" 
AR Path="/61A2171E/61CEC09D" Ref="C?"  Part="1" 
AR Path="/61A217B5/61CEC09D" Ref="C?"  Part="1" 
AR Path="/61A2186F/61CEC09D" Ref="C22"  Part="1" 
F 0 "C22" H 4900 2000 50  0000 L TNN
F 1 "10uF" H 5000 2100 50  0000 R BNN
F 2 "Capacitor_SMD:C_0805_2012Metric" H 5000 2050 50  0001 C CNN
F 3 "~" H 5000 2050 50  0001 C CNN
	1    5000 2050
	-1   0    0    1   
$EndComp
Wire Wire Line
	4750 1900 5000 1900
Wire Wire Line
	5700 1900 6050 1900
$Comp
L Device:C_Small C?
U 1 1 61CF0622
P 6050 2050
AR Path="/61A218D6/61CF0622" Ref="C?"  Part="1" 
AR Path="/61A2171E/61CF0622" Ref="C?"  Part="1" 
AR Path="/61A217B5/61CF0622" Ref="C?"  Part="1" 
AR Path="/61A2186F/61CF0622" Ref="C23"  Part="1" 
F 0 "C23" H 5950 2000 50  0000 L TNN
F 1 "22uF" H 6050 2100 50  0000 R BNN
F 2 "Capacitor_SMD:C_0805_2012Metric" H 6050 2050 50  0001 C CNN
F 3 "~" H 6050 2050 50  0001 C CNN
	1    6050 2050
	-1   0    0    1   
$EndComp
$Comp
L Device:C_Small C?
U 1 1 61CF1300
P 6450 2050
AR Path="/61A218D6/61CF1300" Ref="C?"  Part="1" 
AR Path="/61A2171E/61CF1300" Ref="C?"  Part="1" 
AR Path="/61A217B5/61CF1300" Ref="C?"  Part="1" 
AR Path="/61A2186F/61CF1300" Ref="C24"  Part="1" 
F 0 "C24" H 6350 2000 50  0000 L TNN
F 1 "22uF" H 6450 2100 50  0000 R BNN
F 2 "Capacitor_SMD:C_0805_2012Metric" H 6450 2050 50  0001 C CNN
F 3 "~" H 6450 2050 50  0001 C CNN
	1    6450 2050
	-1   0    0    1   
$EndComp
$Comp
L Device:C_Small C?
U 1 1 61CF1FEB
P 6850 2050
AR Path="/61A218D6/61CF1FEB" Ref="C?"  Part="1" 
AR Path="/61A2171E/61CF1FEB" Ref="C?"  Part="1" 
AR Path="/61A217B5/61CF1FEB" Ref="C?"  Part="1" 
AR Path="/61A2186F/61CF1FEB" Ref="C25"  Part="1" 
F 0 "C25" H 6750 2000 50  0000 L TNN
F 1 "22uF" H 6850 2100 50  0000 R BNN
F 2 "Capacitor_SMD:C_0805_2012Metric" H 6850 2050 50  0001 C CNN
F 3 "~" H 6850 2050 50  0001 C CNN
	1    6850 2050
	-1   0    0    1   
$EndComp
Wire Wire Line
	6050 1900 6050 1950
Connection ~ 6050 1900
Wire Wire Line
	6050 1900 6450 1900
Wire Wire Line
	6450 1900 6450 1950
Connection ~ 6450 1900
Wire Wire Line
	6450 1900 6850 1900
Wire Wire Line
	6850 1900 6850 1950
Connection ~ 6850 1900
Wire Wire Line
	5000 1950 5000 1900
Connection ~ 5000 1900
Wire Wire Line
	5000 1900 5350 1900
$Comp
L Device:C_Small C?
U 1 1 61CF88AE
P 3000 3200
AR Path="/61A218D6/61CF88AE" Ref="C?"  Part="1" 
AR Path="/61A2171E/61CF88AE" Ref="C?"  Part="1" 
AR Path="/61A217B5/61CF88AE" Ref="C?"  Part="1" 
AR Path="/61A2186F/61CF88AE" Ref="C21"  Part="1" 
F 0 "C21" H 2900 3150 50  0000 L TNN
F 1 "0.1uF" H 3000 3250 50  0000 R BNN
F 2 "Capacitor_SMD:C_0805_2012Metric" H 3000 3200 50  0001 C CNN
F 3 "~" H 3000 3200 50  0001 C CNN
	1    3000 3200
	-1   0    0    1   
$EndComp
$EndSCHEMATC
